Flow report for DE2_115_WEB_SERVER
Mon Aug 05 14:45:59 2019
Quartus Prime Version 17.0.0 Build 595 04/25/2017 SJ Standard Edition


---------------------
; Table of Contents ;
---------------------
  1. Legal Notice
  2. Flow Summary
  3. Flow Settings
  4. Flow Non-Default Global Settings
  5. Flow Elapsed Time
  6. Flow OS Summary
  7. Flow Log
  8. Flow Messages
  9. Flow Suppressed Messages



----------------
; Legal Notice ;
----------------
Copyright (C) 2017  Intel Corporation. All rights reserved.
Your use of Intel Corporation's design tools, logic functions 
and other software and tools, and its AMPP partner logic 
functions, and any output files from any of the foregoing 
(including device programming or simulation files), and any 
associated documentation or information are expressly subject 
to the terms and conditions of the Intel Program License 
Subscription Agreement, the Intel Quartus Prime License Agreement,
the Intel MegaCore Function License Agreement, or other 
applicable license agreement, including, without limitation, 
that your use is for the sole purpose of programming logic 
devices manufactured by Intel and sold by Intel or its 
authorized distributors.  Please refer to the applicable 
agreement for further details.



+--------------------------------------------------------------------------------------+
; Flow Summary                                                                         ;
+------------------------------------+-------------------------------------------------+
; Flow Status                        ; Successful - Mon Aug 05 14:45:59 2019           ;
; Quartus Prime Version              ; 17.0.0 Build 595 04/25/2017 SJ Standard Edition ;
; Revision Name                      ; DE2_115_WEB_SERVER                              ;
; Top-level Entity Name              ; DE2_115_WEB_SERVER                              ;
; Family                             ; Cyclone IV E                                    ;
; Device                             ; EP4CE115F29C7                                   ;
; Timing Models                      ; Final                                           ;
; Total logic elements               ; 17,851 / 114,480 ( 16 % )                       ;
;     Total combinational functions  ; 14,196 / 114,480 ( 12 % )                       ;
;     Dedicated logic registers      ; 11,803 / 114,480 ( 10 % )                       ;
; Total registers                    ; 11934                                           ;
; Total pins                         ; 518 / 529 ( 98 % )                              ;
; Total virtual pins                 ; 0                                               ;
; Total memory bits                  ; 1,392,574 / 3,981,312 ( 35 % )                  ;
; Embedded Multiplier 9-bit elements ; 12 / 532 ( 2 % )                                ;
; Total PLLs                         ; 2 / 4 ( 50 % )                                  ;
+------------------------------------+-------------------------------------------------+


+-----------------------------------------+
; Flow Settings                           ;
+-------------------+---------------------+
; Option            ; Setting             ;
+-------------------+---------------------+
; Start date & time ; 08/05/2019 14:38:34 ;
; Main task         ; Compilation         ;
; Revision Name     ; DE2_115_WEB_SERVER  ;
+-------------------+---------------------+


+---------------------------------------------------------------------------------------------------------------------------------------------------------------+
; Flow Non-Default Global Settings                                                                                                                              ;
+--------------------------------------+--------------------------------------------------------------------+---------------+------------------+----------------+
; Assignment Name                      ; Value                                                              ; Default Value ; Entity Name      ; Section Id     ;
+--------------------------------------+--------------------------------------------------------------------+---------------+------------------+----------------+
; COMPILER_SIGNATURE_ID                ; 264510340485811.156503391311004                                    ; --            ; --               ; --             ;
; EDA_DESIGN_INSTANCE_NAME             ; NA                                                                 ; --            ; --               ; test_tb_LCD_0  ;
; EDA_NATIVELINK_SIMULATION_TEST_BENCH ; test_tb_LCD_0                                                      ; --            ; --               ; eda_simulation ;
; EDA_OUTPUT_DATA_FORMAT               ; Vhdl                                                               ; --            ; --               ; eda_simulation ;
; EDA_SIMULATION_TOOL                  ; ModelSim-Altera (VHDL)                                             ; <None>        ; --               ; --             ;
; EDA_TEST_BENCH_ENABLE_STATUS         ; TEST_BENCH_MODE                                                    ; --            ; --               ; eda_simulation ;
; EDA_TEST_BENCH_FILE                  ; test_tb_LCD_0.vhd                                                  ; --            ; --               ; test_tb_LCD_0  ;
; EDA_TEST_BENCH_MODULE_NAME           ; test_tb_LCD_0                                                      ; --            ; --               ; test_tb_LCD_0  ;
; EDA_TEST_BENCH_NAME                  ; test_tb_LCD_0                                                      ; --            ; --               ; eda_simulation ;
; EDA_TIME_SCALE                       ; 1 ps                                                               ; --            ; --               ; eda_simulation ;
; MAX_CORE_JUNCTION_TEMP               ; 85                                                                 ; --            ; --               ; --             ;
; MIN_CORE_JUNCTION_TEMP               ; 0                                                                  ; --            ; --               ; --             ;
; MISC_FILE                            ; de2_115_WEB_Qsys/synthesis/../de2_115_WEB_Qsys.cmp                 ; --            ; --               ; --             ;
; MISC_FILE                            ; de2_115_WEB_Qsys/synthesis/../../de2_115_WEB_Qsys.qsys             ; --            ; --               ; --             ;
; MISC_FILE                            ; enet_tx_clk_pll.bsf                                                ; --            ; --               ; --             ;
; MISC_FILE                            ; enet_tx_clk_pll_bb.v                                               ; --            ; --               ; --             ;
; MISC_FILE                            ; enet_tx_clk_pll.ppf                                                ; --            ; --               ; --             ;
; MISC_FILE                            ; enet_rx_clk_pll.bsf                                                ; --            ; --               ; --             ;
; MISC_FILE                            ; enet_rx_clk_pll_bb.v                                               ; --            ; --               ; --             ;
; MISC_FILE                            ; enet_rx_clk_pll.ppf                                                ; --            ; --               ; --             ;
; MISC_FILE                            ; ddr_o.bsf                                                          ; --            ; --               ; --             ;
; MISC_FILE                            ; ddr_o_bb.v                                                         ; --            ; --               ; --             ;
; MISC_FILE                            ; ddr_o.ppf                                                          ; --            ; --               ; --             ;
; NOMINAL_CORE_SUPPLY_VOLTAGE          ; 1.2V                                                               ; --            ; --               ; --             ;
; NUM_PARALLEL_PROCESSORS              ; 2                                                                  ; --            ; --               ; --             ;
; PARTITION_COLOR                      ; -- (Not supported for targeted family)                             ; --            ; --               ; Top            ;
; PARTITION_FITTER_PRESERVATION_LEVEL  ; -- (Not supported for targeted family)                             ; --            ; --               ; Top            ;
; PARTITION_NETLIST_TYPE               ; -- (Not supported for targeted family)                             ; --            ; --               ; Top            ;
; POWER_BOARD_THERMAL_MODEL            ; None (CONSERVATIVE)                                                ; --            ; --               ; --             ;
; POWER_PRESET_COOLING_SOLUTION        ; 23 MM HEAT SINK WITH 200 LFPM AIRFLOW                              ; --            ; --               ; --             ;
; SLD_FILE                             ; de2_115_WEB_Qsys/synthesis/de2_115_WEB_Qsys.regmap                 ; --            ; --               ; --             ;
; SLD_FILE                             ; de2_115_WEB_Qsys/synthesis/de2_115_WEB_Qsys.debuginfo              ; --            ; --               ; --             ;
; SLD_INFO                             ; QSYS_NAME de2_115_WEB_Qsys HAS_SOPCINFO 1 GENERATION_ID 1535058729 ; --            ; de2_115_WEB_Qsys ; --             ;
; SMART_RECOMPILE                      ; On                                                                 ; Off           ; --               ; --             ;
; SOPCINFO_FILE                        ; de2_115_WEB_Qsys/synthesis/../../de2_115_WEB_Qsys.sopcinfo         ; --            ; --               ; --             ;
; SYNTHESIS_ONLY_QIP                   ; On                                                                 ; --            ; --               ; --             ;
+--------------------------------------+--------------------------------------------------------------------+---------------+------------------+----------------+


+-------------------------------------------------------------------------------------------------------------------------------+
; Flow Elapsed Time                                                                                                             ;
+---------------------------+--------------+-------------------------+---------------------+------------------------------------+
; Module Name               ; Elapsed Time ; Average Processors Used ; Peak Virtual Memory ; Total CPU Time (on all processors) ;
+---------------------------+--------------+-------------------------+---------------------+------------------------------------+
; Analysis & Synthesis      ; 00:02:40     ; 1.0                     ; 5426 MB             ; 00:03:05                           ;
; Fitter                    ; 00:03:19     ; 1.0                     ; 5800 MB             ; 00:04:25                           ;
; Assembler                 ; 00:00:09     ; 1.0                     ; 4811 MB             ; 00:00:09                           ;
; TimeQuest Timing Analyzer ; 00:00:16     ; 1.2                     ; 5098 MB             ; 00:00:19                           ;
; EDA Netlist Writer        ; 00:00:25     ; 1.0                     ; 4929 MB             ; 00:00:25                           ;
; Total                     ; 00:06:49     ; --                      ; --                  ; 00:08:23                           ;
+---------------------------+--------------+-------------------------+---------------------+------------------------------------+


+-----------------------------------------------------------------------------------------+
; Flow OS Summary                                                                         ;
+---------------------------+------------------+------------+------------+----------------+
; Module Name               ; Machine Hostname ; OS Name    ; OS Version ; Processor type ;
+---------------------------+------------------+------------+------------+----------------+
; Analysis & Synthesis      ; GGIECDIGWRK142   ; Windows 10 ; 10.0       ; x86_64         ;
; Fitter                    ; GGIECDIGWRK142   ; Windows 10 ; 10.0       ; x86_64         ;
; Assembler                 ; GGIECDIGWRK142   ; Windows 10 ; 10.0       ; x86_64         ;
; TimeQuest Timing Analyzer ; GGIECDIGWRK142   ; Windows 10 ; 10.0       ; x86_64         ;
; EDA Netlist Writer        ; GGIECDIGWRK142   ; Windows 10 ; 10.0       ; x86_64         ;
+---------------------------+------------------+------------+------------+----------------+


------------
; Flow Log ;
------------
quartus_map --read_settings_files=on --write_settings_files=off DE2_115_WEB_SERVER -c DE2_115_WEB_SERVER
quartus_fit --read_settings_files=off --write_settings_files=off DE2_115_WEB_SERVER -c DE2_115_WEB_SERVER
quartus_asm --read_settings_files=off --write_settings_files=off DE2_115_WEB_SERVER -c DE2_115_WEB_SERVER
quartus_sta DE2_115_WEB_SERVER -c DE2_115_WEB_SERVER
quartus_eda --read_settings_files=off --write_settings_files=off DE2_115_WEB_SERVER -c DE2_115_WEB_SERVER



