15:05:15 **** Incremental Build of configuration Nios II for project web6second ****
make all 
Info: Building ../web6second_bsp/
C:/intelFPGA/17.0/nios2eds/bin/gnu/H-x86_64-mingw32/bin/make --no-print-directory -C ../web6second_bsp/
[BSP build complete]
Info: Compiling FreeRTOS/Common_Demo_Tasks/BlockQ.c to obj/default/FreeRTOS/Common_Demo_Tasks/BlockQ.o
nios2-elf-gcc -xc -MP -MMD -c -I../web6second_bsp//HAL/inc -I../web6second_bsp/ -I../web6second_bsp//drivers/inc -IFreeRTOS -IFreeRTOS/Common_Demo_Tasks -IFreeRTOS/Common_Demo_Tasks/include -IFreeRTOS/Source -IFreeRTOS/Source/include -IFreeRTOS/Source/portable -IFreeRTOS/Source/portable/MemMang -IFreeRTOS/Source/portable/GCC -IFreeRTOS/Source/portable/GCC/NiosII  -pipe -D__hal__ -DALT_NO_INSTRUCTION_EMULATION -DALT_SINGLE_THREADED    -O0 -g -Wall   -mno-hw-div -mhw-mul -mno-hw-mulx -mgpopt=global  -o obj/default/FreeRTOS/Common_Demo_Tasks/BlockQ.o FreeRTOS/Common_Demo_Tasks/BlockQ.c
Info: Compiling FreeRTOS/Common_Demo_Tasks/GenQTest.c to obj/default/FreeRTOS/Common_Demo_Tasks/GenQTest.o
nios2-elf-gcc -xc -MP -MMD -c -I../web6second_bsp//HAL/inc -I../web6second_bsp/ -I../web6second_bsp//drivers/inc -IFreeRTOS -IFreeRTOS/Common_Demo_Tasks -IFreeRTOS/Common_Demo_Tasks/include -IFreeRTOS/Source -IFreeRTOS/Source/include -IFreeRTOS/Source/portable -IFreeRTOS/Source/portable/MemMang -IFreeRTOS/Source/portable/GCC -IFreeRTOS/Source/portable/GCC/NiosII  -pipe -D__hal__ -DALT_NO_INSTRUCTION_EMULATION -DALT_SINGLE_THREADED    -O0 -g -Wall   -mno-hw-div -mhw-mul -mno-hw-mulx -mgpopt=global  -o obj/default/FreeRTOS/Common_Demo_Tasks/GenQTest.o FreeRTOS/Common_Demo_Tasks/GenQTest.c
Info: Compiling FreeRTOS/Common_Demo_Tasks/PollQ.c to obj/default/FreeRTOS/Common_Demo_Tasks/PollQ.o
nios2-elf-gcc -xc -MP -MMD -c -I../web6second_bsp//HAL/inc -I../web6second_bsp/ -I../web6second_bsp//drivers/inc -IFreeRTOS -IFreeRTOS/Common_Demo_Tasks -IFreeRTOS/Common_Demo_Tasks/include -IFreeRTOS/Source -IFreeRTOS/Source/include -IFreeRTOS/Source/portable -IFreeRTOS/Source/portable/MemMang -IFreeRTOS/Source/portable/GCC -IFreeRTOS/Source/portable/GCC/NiosII  -pipe -D__hal__ -DALT_NO_INSTRUCTION_EMULATION -DALT_SINGLE_THREADED    -O0 -g -Wall   -mno-hw-div -mhw-mul -mno-hw-mulx -mgpopt=global  -o obj/default/FreeRTOS/Common_Demo_Tasks/PollQ.o FreeRTOS/Common_Demo_Tasks/PollQ.c
Info: Compiling FreeRTOS/Common_Demo_Tasks/QPeek.c to obj/default/FreeRTOS/Common_Demo_Tasks/QPeek.o
nios2-elf-gcc -xc -MP -MMD -c -I../web6second_bsp//HAL/inc -I../web6second_bsp/ -I../web6second_bsp//drivers/inc -IFreeRTOS -IFreeRTOS/Common_Demo_Tasks -IFreeRTOS/Common_Demo_Tasks/include -IFreeRTOS/Source -IFreeRTOS/Source/include -IFreeRTOS/Source/portable -IFreeRTOS/Source/portable/MemMang -IFreeRTOS/Source/portable/GCC -IFreeRTOS/Source/portable/GCC/NiosII  -pipe -D__hal__ -DALT_NO_INSTRUCTION_EMULATION -DALT_SINGLE_THREADED    -O0 -g -Wall   -mno-hw-div -mhw-mul -mno-hw-mulx -mgpopt=global  -o obj/default/FreeRTOS/Common_Demo_Tasks/QPeek.o FreeRTOS/Common_Demo_Tasks/QPeek.c
Info: Compiling FreeRTOS/Common_Demo_Tasks/blocktim.c to obj/default/FreeRTOS/Common_Demo_Tasks/blocktim.o
nios2-elf-gcc -xc -MP -MMD -c -I../web6second_bsp//HAL/inc -I../web6second_bsp/ -I../web6second_bsp//drivers/inc -IFreeRTOS -IFreeRTOS/Common_Demo_Tasks -IFreeRTOS/Common_Demo_Tasks/include -IFreeRTOS/Source -IFreeRTOS/Source/include -IFreeRTOS/Source/portable -IFreeRTOS/Source/portable/MemMang -IFreeRTOS/Source/portable/GCC -IFreeRTOS/Source/portable/GCC/NiosII  -pipe -D__hal__ -DALT_NO_INSTRUCTION_EMULATION -DALT_SINGLE_THREADED    -O0 -g -Wall   -mno-hw-div -mhw-mul -mno-hw-mulx -mgpopt=global  -o obj/default/FreeRTOS/Common_Demo_Tasks/blocktim.o FreeRTOS/Common_Demo_Tasks/blocktim.c
Info: Compiling FreeRTOS/Common_Demo_Tasks/comtest.c to obj/default/FreeRTOS/Common_Demo_Tasks/comtest.o
nios2-elf-gcc -xc -MP -MMD -c -I../web6second_bsp//HAL/inc -I../web6second_bsp/ -I../web6second_bsp//drivers/inc -IFreeRTOS -IFreeRTOS/Common_Demo_Tasks -IFreeRTOS/Common_Demo_Tasks/include -IFreeRTOS/Source -IFreeRTOS/Source/include -IFreeRTOS/Source/portable -IFreeRTOS/Source/portable/MemMang -IFreeRTOS/Source/portable/GCC -IFreeRTOS/Source/portable/GCC/NiosII  -pipe -D__hal__ -DALT_NO_INSTRUCTION_EMULATION -DALT_SINGLE_THREADED    -O0 -g -Wall   -mno-hw-div -mhw-mul -mno-hw-mulx -mgpopt=global  -o obj/default/FreeRTOS/Common_Demo_Tasks/comtest.o FreeRTOS/Common_Demo_Tasks/comtest.c
Info: Compiling FreeRTOS/Common_Demo_Tasks/countsem.c to obj/default/FreeRTOS/Common_Demo_Tasks/countsem.o
nios2-elf-gcc -xc -MP -MMD -c -I../web6second_bsp//HAL/inc -I../web6second_bsp/ -I../web6second_bsp//drivers/inc -IFreeRTOS -IFreeRTOS/Common_Demo_Tasks -IFreeRTOS/Common_Demo_Tasks/include -IFreeRTOS/Source -IFreeRTOS/Source/include -IFreeRTOS/Source/portable -IFreeRTOS/Source/portable/MemMang -IFreeRTOS/Source/portable/GCC -IFreeRTOS/Source/portable/GCC/NiosII  -pipe -D__hal__ -DALT_NO_INSTRUCTION_EMULATION -DALT_SINGLE_THREADED    -O0 -g -Wall   -mno-hw-div -mhw-mul -mno-hw-mulx -mgpopt=global  -o obj/default/FreeRTOS/Common_Demo_Tasks/countsem.o FreeRTOS/Common_Demo_Tasks/countsem.c
Info: Compiling FreeRTOS/Common_Demo_Tasks/death.c to obj/default/FreeRTOS/Common_Demo_Tasks/death.o
nios2-elf-gcc -xc -MP -MMD -c -I../web6second_bsp//HAL/inc -I../web6second_bsp/ -I../web6second_bsp//drivers/inc -IFreeRTOS -IFreeRTOS/Common_Demo_Tasks -IFreeRTOS/Common_Demo_Tasks/include -IFreeRTOS/Source -IFreeRTOS/Source/include -IFreeRTOS/Source/portable -IFreeRTOS/Source/portable/MemMang -IFreeRTOS/Source/portable/GCC -IFreeRTOS/Source/portable/GCC/NiosII  -pipe -D__hal__ -DALT_NO_INSTRUCTION_EMULATION -DALT_SINGLE_THREADED    -O0 -g -Wall   -mno-hw-div -mhw-mul -mno-hw-mulx -mgpopt=global  -o obj/default/FreeRTOS/Common_Demo_Tasks/death.o FreeRTOS/Common_Demo_Tasks/death.c
Info: Compiling FreeRTOS/Common_Demo_Tasks/dynamic.c to obj/default/FreeRTOS/Common_Demo_Tasks/dynamic.o
nios2-elf-gcc -xc -MP -MMD -c -I../web6second_bsp//HAL/inc -I../web6second_bsp/ -I../web6second_bsp//drivers/inc -IFreeRTOS -IFreeRTOS/Common_Demo_Tasks -IFreeRTOS/Common_Demo_Tasks/include -IFreeRTOS/Source -IFreeRTOS/Source/include -IFreeRTOS/Source/portable -IFreeRTOS/Source/portable/MemMang -IFreeRTOS/Source/portable/GCC -IFreeRTOS/Source/portable/GCC/NiosII  -pipe -D__hal__ -DALT_NO_INSTRUCTION_EMULATION -DALT_SINGLE_THREADED    -O0 -g -Wall   -mno-hw-div -mhw-mul -mno-hw-mulx -mgpopt=global  -o obj/default/FreeRTOS/Common_Demo_Tasks/dynamic.o FreeRTOS/Common_Demo_Tasks/dynamic.c
Info: Compiling FreeRTOS/Common_Demo_Tasks/flash.c to obj/default/FreeRTOS/Common_Demo_Tasks/flash.o
nios2-elf-gcc -xc -MP -MMD -c -I../web6second_bsp//HAL/inc -I../web6second_bsp/ -I../web6second_bsp//drivers/inc -IFreeRTOS -IFreeRTOS/Common_Demo_Tasks -IFreeRTOS/Common_Demo_Tasks/include -IFreeRTOS/Source -IFreeRTOS/Source/include -IFreeRTOS/Source/portable -IFreeRTOS/Source/portable/MemMang -IFreeRTOS/Source/portable/GCC -IFreeRTOS/Source/portable/GCC/NiosII  -pipe -D__hal__ -DALT_NO_INSTRUCTION_EMULATION -DALT_SINGLE_THREADED    -O0 -g -Wall   -mno-hw-div -mhw-mul -mno-hw-mulx -mgpopt=global  -o obj/default/FreeRTOS/Common_Demo_Tasks/flash.o FreeRTOS/Common_Demo_Tasks/flash.c
Info: Compiling FreeRTOS/Common_Demo_Tasks/integer.c to obj/default/FreeRTOS/Common_Demo_Tasks/integer.o
nios2-elf-gcc -xc -MP -MMD -c -I../web6second_bsp//HAL/inc -I../web6second_bsp/ -I../web6second_bsp//drivers/inc -IFreeRTOS -IFreeRTOS/Common_Demo_Tasks -IFreeRTOS/Common_Demo_Tasks/include -IFreeRTOS/Source -IFreeRTOS/Source/include -IFreeRTOS/Source/portable -IFreeRTOS/Source/portable/MemMang -IFreeRTOS/Source/portable/GCC -IFreeRTOS/Source/portable/GCC/NiosII  -pipe -D__hal__ -DALT_NO_INSTRUCTION_EMULATION -DALT_SINGLE_THREADED    -O0 -g -Wall   -mno-hw-div -mhw-mul -mno-hw-mulx -mgpopt=global  -o obj/default/FreeRTOS/Common_Demo_Tasks/integer.o FreeRTOS/Common_Demo_Tasks/integer.c
Info: Compiling FreeRTOS/Common_Demo_Tasks/recmutex.c to obj/default/FreeRTOS/Common_Demo_Tasks/recmutex.o
nios2-elf-gcc -xc -MP -MMD -c -I../web6second_bsp//HAL/inc -I../web6second_bsp/ -I../web6second_bsp//drivers/inc -IFreeRTOS -IFreeRTOS/Common_Demo_Tasks -IFreeRTOS/Common_Demo_Tasks/include -IFreeRTOS/Source -IFreeRTOS/Source/include -IFreeRTOS/Source/portable -IFreeRTOS/Source/portable/MemMang -IFreeRTOS/Source/portable/GCC -IFreeRTOS/Source/portable/GCC/NiosII  -pipe -D__hal__ -DALT_NO_INSTRUCTION_EMULATION -DALT_SINGLE_THREADED    -O0 -g -Wall   -mno-hw-div -mhw-mul -mno-hw-mulx -mgpopt=global  -o obj/default/FreeRTOS/Common_Demo_Tasks/recmutex.o FreeRTOS/Common_Demo_Tasks/recmutex.c
Info: Compiling FreeRTOS/Common_Demo_Tasks/semtest.c to obj/default/FreeRTOS/Common_Demo_Tasks/semtest.o
nios2-elf-gcc -xc -MP -MMD -c -I../web6second_bsp//HAL/inc -I../web6second_bsp/ -I../web6second_bsp//drivers/inc -IFreeRTOS -IFreeRTOS/Common_Demo_Tasks -IFreeRTOS/Common_Demo_Tasks/include -IFreeRTOS/Source -IFreeRTOS/Source/include -IFreeRTOS/Source/portable -IFreeRTOS/Source/portable/MemMang -IFreeRTOS/Source/portable/GCC -IFreeRTOS/Source/portable/GCC/NiosII  -pipe -D__hal__ -DALT_NO_INSTRUCTION_EMULATION -DALT_SINGLE_THREADED    -O0 -g -Wall   -mno-hw-div -mhw-mul -mno-hw-mulx -mgpopt=global  -o obj/default/FreeRTOS/Common_Demo_Tasks/semtest.o FreeRTOS/Common_Demo_Tasks/semtest.c
Info: Compiling FreeRTOS/Source/list.c to obj/default/FreeRTOS/Source/list.o
nios2-elf-gcc -xc -MP -MMD -c -I../web6second_bsp//HAL/inc -I../web6second_bsp/ -I../web6second_bsp//drivers/inc -IFreeRTOS -IFreeRTOS/Common_Demo_Tasks -IFreeRTOS/Common_Demo_Tasks/include -IFreeRTOS/Source -IFreeRTOS/Source/include -IFreeRTOS/Source/portable -IFreeRTOS/Source/portable/MemMang -IFreeRTOS/Source/portable/GCC -IFreeRTOS/Source/portable/GCC/NiosII  -pipe -D__hal__ -DALT_NO_INSTRUCTION_EMULATION -DALT_SINGLE_THREADED    -O0 -g -Wall   -mno-hw-div -mhw-mul -mno-hw-mulx -mgpopt=global  -o obj/default/FreeRTOS/Source/list.o FreeRTOS/Source/list.c
Info: Compiling FreeRTOS/Source/portable/GCC/NiosII/port.c to obj/default/FreeRTOS/Source/portable/GCC/NiosII/port.o
nios2-elf-gcc -xc -MP -MMD -c -I../web6second_bsp//HAL/inc -I../web6second_bsp/ -I../web6second_bsp//drivers/inc -IFreeRTOS -IFreeRTOS/Common_Demo_Tasks -IFreeRTOS/Common_Demo_Tasks/include -IFreeRTOS/Source -IFreeRTOS/Source/include -IFreeRTOS/Source/portable -IFreeRTOS/Source/portable/MemMang -IFreeRTOS/Source/portable/GCC -IFreeRTOS/Source/portable/GCC/NiosII  -pipe -D__hal__ -DALT_NO_INSTRUCTION_EMULATION -DALT_SINGLE_THREADED    -O0 -g -Wall   -mno-hw-div -mhw-mul -mno-hw-mulx -mgpopt=global  -o obj/default/FreeRTOS/Source/portable/GCC/NiosII/port.o FreeRTOS/Source/portable/GCC/NiosII/port.c
FreeRTOS/Source/portable/GCC/NiosII/port.c:65:38: fatal error: altera_avalon_timer_regs.h: No such file or directory
compilation terminated.
make: *** [obj/default/FreeRTOS/Source/portable/GCC/NiosII/port.o] Error 1

15:05:20 Build Finished (took 5s.477ms)

